[gd_scene load_steps=3 format=2]

[ext_resource path="res://disparo.png" type="Texture" id=1]
[ext_resource path="res://Disparo.gd" type="Script" id=2]

[node name="Node2D" type="Node2D"]

[node name="Disparo" type="Sprite" parent="."]
texture = ExtResource( 1 )
script = ExtResource( 2 )
