[gd_scene load_steps=3 format=2]

[ext_resource path="res://ship/ship5.png" type="Texture" id=1]
[ext_resource path="res://ship/ship.gd" type="Script" id=2]

[node name="Ship" type="Area2D"]
collision_mask = 0
script = ExtResource( 2 )
__meta__ = {
"_edit_group_": true,
"_edit_lock_": true
}

[node name="CollisionPolygon2D" type="CollisionPolygon2D" parent="."]
polygon = PoolVector2Array( 64, 13, 185, 132, 187, 156, -11, 100, -190, 154, -183, 123, -59, 17, -66, -88, -3, -160, 64, -88 )

[node name="Ship" type="Sprite" parent="."]
texture = ExtResource( 1 )

[node name="SalidaDisparo" type="Position2D" parent="."]
position = Vector2( -1, -154 )

[node name="RepeticionDisparo" type="Timer" parent="."]
wait_time = 0.5
